…
```         
Getting data from the 2017-2021 5-year ACS
```

```         
md_median_age %>% 
  arrange(estimate)
```

```         
# A tibble: 67 × 5
   GEOID NAME                     variable   estimate   moe
   <chr> <chr>                    <chr>         <dbl> <dbl>
 1 12073 Leon County, Florida     median_age     31.6   0.2
 2 12001 Alachua County, Florida  median_age     32.1   0.2
 3 12051 Hendry County, Florida   median_age     35.1   0.9
 4 12049 Hardee County, Florida   median_age     35.6   0.4
 5 12095 Orange County, Florida   median_age     35.7   0.1
 6 12097 Osceola County, Florida  median_age     36.3   0.3
 7 12031 Duval County, Florida    median_age     36.5   0.1
 8 12091 Okaloosa County, Florida median_age     36.9   0.3
 9 12003 Baker County, Florida    median_age     37     0.7
10 12033 Escambia County, Florida median_age     37.5   0.2
# ℹ 57 more rows
```
…
```         
Getting data from the 2016-2020 5-year ACS
```

```         
speak_spanish_5_17
```

```         
# A tibble: 67 × 4
   GEOID NAME                      speak_spanish_5_17   moe
   <chr> <chr>                                  <dbl> <dbl>
 1 12001 Alachua County, Florida                 1110   275
 2 12003 Baker County, Florida                     52    76
 3 12005 Bay County, Florida                      546   205
 4 12007 Bradford County, Florida                  52    43
 5 12009 Brevard County, Florida                 3246   623
 6 12011 Broward County, Florida                60971  2007
 7 12013 Calhoun County, Florida                    0    23
 8 12015 Charlotte County, Florida               1104   246
 9 12017 Citrus County, Florida                   667   287
10 12019 Clay County, Florida                    1425   404
# ℹ 57 more rows
```
…
ℹ Use `spec()` to retrieve the full column specification for this data.
ℹ Specify the column types or set `show_col_types = FALSE` to quiet this message.
```

```         
zip_totals
```

```         
# A tibble: 5,181 × 2
   zip   count
   <chr> <dbl>
 1 00048     1
 2 00136     2
 3 00153     2
 4 00160     1
 5 00165     1
 6 00168     1
 7 00187     1
 8 00195     1
 9 00196     2
10 00260     1
# ℹ 5,171 more rows
```
